^C:\PROJETOS\C++\VOICEGATEWAY\LUA4.0\WIN32\DEBUG\LAPI.SBR|C:\PROJETOS\C++\VOICEGATEWAY\LUA4.0\WIN32\DEBUG\LAUXLIB.SBR|C:\PROJETOS\C++\VOICEGATEWAY\LUA4.0\WIN32\DEBUG\LBASELIB.SBR|C:\PROJETOS\C++\VOICEGATEWAY\LUA4.0\WIN32\DEBUG\LCODE.SBR|C:\PROJETOS\C++\VOICEGATEWAY\LUA4.0\WIN32\DEBUG\LDBLIB.SBR|C:\PROJETOS\C++\VOICEGATEWAY\LUA4.0\WIN32\DEBUG\LDEBUG.SBR|C:\PROJETOS\C++\VOICEGATEWAY\LUA4.0\WIN32\DEBUG\LDO.SBR|C:\PROJETOS\C++\VOICEGATEWAY\LUA4.0\WIN32\DEBUG\LFUNC.SBR|C:\PROJETOS\C++\VOICEGATEWAY\LUA4.0\WIN32\DEBUG\LGC.SBR|C:\PROJETOS\C++\VOICEGATEWAY\LUA4.0\WIN32\DEBUG\LIOLIB.SBR|C:\PROJETOS\C++\VOICEGATEWAY\LUA4.0\WIN32\DEBUG\LLEX.SBR|C:\PROJETOS\C++\VOICEGATEWAY\LUA4.0\WIN32\DEBUG\LMATHLIB.SBR|C:\PROJETOS\C++\VOICEGATEWAY\LUA4.0\WIN32\DEBUG\LMEM.SBR|C:\PROJETOS\C++\VOICEGATEWAY\LUA4.0\WIN32\DEBUG\LOBJECT.SBR|C:\PROJETOS\C++\VOICEGATEWAY\LUA4.0\WIN32\DEBUG\LPARSER.SBR|C:\PROJETOS\C++\VOICEGATEWAY\LUA4.0\WIN32\DEBUG\LSTATE.SBR|C:\PROJETOS\C++\VOICEGATEWAY\LUA4.0\WIN32\DEBUG\LSTRING.SBR|C:\PROJETOS\C++\VOICEGATEWAY\LUA4.0\WIN32\DEBUG\LSTRLIB.SBR|C:\PROJETOS\C++\VOICEGATEWAY\LUA4.0\WIN32\DEBUG\LS_ODBC.SBR|C:\PROJETOS\C++\VOICEGATEWAY\LUA4.0\WIN32\DEBUG\LTABLE.SBR|C:\PROJETOS\C++\VOICEGATEWAY\LUA4.0\WIN32\DEBUG\LTESTS.SBR|C:\PROJETOS\C++\VOICEGATEWAY\LUA4.0\WIN32\DEBUG\LTM.SBR|C:\PROJETOS\C++\VOICEGATEWAY\LUA4.0\WIN32\DEBUG\LUASOCKET.SBR|C:\PROJETOS\C++\VOICEGATEWAY\LUA4.0\WIN32\DEBUG\LUASQL.SBR|C:\PROJETOS\C++\VOICEGATEWAY\LUA4.0\WIN32\DEBUG\LUNDUMP.SBR|C:\PROJETOS\C++\VOICEGATEWAY\LUA4.0\WIN32\DEBUG\LVM.SBR|C:\PROJETOS\C++\VOICEGATEWAY\LUA4.0\WIN32\DEBUG\LZIO.SBR
C:\WINDOWS\SYSTEM32\TZRES.DLL
C:\PROJETOS\C++\VOICEGATEWAY\LUA4.0\WIN32\DEBUG\LAPI.SBR
C:\PROJETOS\C++\VOICEGATEWAY\LUA4.0\WIN32\DEBUG\LAUXLIB.SBR
C:\PROJETOS\C++\VOICEGATEWAY\LUA4.0\WIN32\DEBUG\LBASELIB.SBR
C:\PROJETOS\C++\VOICEGATEWAY\LUA4.0\WIN32\DEBUG\LCODE.SBR
C:\PROJETOS\C++\VOICEGATEWAY\LUA4.0\WIN32\DEBUG\LDBLIB.SBR
C:\PROJETOS\C++\VOICEGATEWAY\LUA4.0\WIN32\DEBUG\LDEBUG.SBR
C:\PROJETOS\C++\VOICEGATEWAY\LUA4.0\WIN32\DEBUG\LDO.SBR
C:\PROJETOS\C++\VOICEGATEWAY\LUA4.0\WIN32\DEBUG\LFUNC.SBR
C:\PROJETOS\C++\VOICEGATEWAY\LUA4.0\WIN32\DEBUG\LGC.SBR
C:\PROJETOS\C++\VOICEGATEWAY\LUA4.0\WIN32\DEBUG\LIOLIB.SBR
C:\PROJETOS\C++\VOICEGATEWAY\LUA4.0\WIN32\DEBUG\LLEX.SBR
C:\PROJETOS\C++\VOICEGATEWAY\LUA4.0\WIN32\DEBUG\LMATHLIB.SBR
C:\PROJETOS\C++\VOICEGATEWAY\LUA4.0\WIN32\DEBUG\LMEM.SBR
C:\PROJETOS\C++\VOICEGATEWAY\LUA4.0\WIN32\DEBUG\LOBJECT.SBR
C:\PROJETOS\C++\VOICEGATEWAY\LUA4.0\WIN32\DEBUG\LPARSER.SBR
C:\PROJETOS\C++\VOICEGATEWAY\LUA4.0\WIN32\DEBUG\LSTATE.SBR
C:\PROJETOS\C++\VOICEGATEWAY\LUA4.0\WIN32\DEBUG\LSTRING.SBR
C:\PROJETOS\C++\VOICEGATEWAY\LUA4.0\WIN32\DEBUG\LSTRLIB.SBR
C:\PROJETOS\C++\VOICEGATEWAY\LUA4.0\WIN32\DEBUG\LS_ODBC.SBR
C:\PROJETOS\C++\VOICEGATEWAY\LUA4.0\WIN32\DEBUG\LTABLE.SBR
C:\PROJETOS\C++\VOICEGATEWAY\LUA4.0\WIN32\DEBUG\LTESTS.SBR
C:\PROJETOS\C++\VOICEGATEWAY\LUA4.0\WIN32\DEBUG\LTM.SBR
C:\PROJETOS\C++\VOICEGATEWAY\LUA4.0\WIN32\DEBUG\LUASOCKET.SBR
C:\PROJETOS\C++\VOICEGATEWAY\LUA4.0\WIN32\DEBUG\LUASQL.SBR
C:\PROJETOS\C++\VOICEGATEWAY\LUA4.0\WIN32\DEBUG\LUNDUMP.SBR
C:\PROJETOS\C++\VOICEGATEWAY\LUA4.0\WIN32\DEBUG\LVM.SBR
C:\PROJETOS\C++\VOICEGATEWAY\LUA4.0\WIN32\DEBUG\LZIO.SBR
