^C:\PROJETOS\C++\VOICEGATEWAY\LUA4.0\LAPI.C|C:\PROJETOS\C++\VOICEGATEWAY\LUA4.0\LAUXLIB.C|C:\PROJETOS\C++\VOICEGATEWAY\LUA4.0\LBASELIB.C|C:\PROJETOS\C++\VOICEGATEWAY\LUA4.0\LCODE.C|C:\PROJETOS\C++\VOICEGATEWAY\LUA4.0\LDBLIB.C|C:\PROJETOS\C++\VOICEGATEWAY\LUA4.0\LDEBUG.C|C:\PROJETOS\C++\VOICEGATEWAY\LUA4.0\LDO.C|C:\PROJETOS\C++\VOICEGATEWAY\LUA4.0\LFUNC.C|C:\PROJETOS\C++\VOICEGATEWAY\LUA4.0\LGC.C|C:\PROJETOS\C++\VOICEGATEWAY\LUA4.0\LIOLIB.C|C:\PROJETOS\C++\VOICEGATEWAY\LUA4.0\LLEX.C|C:\PROJETOS\C++\VOICEGATEWAY\LUA4.0\LMATHLIB.C|C:\PROJETOS\C++\VOICEGATEWAY\LUA4.0\LMEM.C|C:\PROJETOS\C++\VOICEGATEWAY\LUA4.0\LOBJECT.C|C:\PROJETOS\C++\VOICEGATEWAY\LUA4.0\LPARSER.C|C:\PROJETOS\C++\VOICEGATEWAY\LUA4.0\LSTATE.C|C:\PROJETOS\C++\VOICEGATEWAY\LUA4.0\LSTRING.C|C:\PROJETOS\C++\VOICEGATEWAY\LUA4.0\LSTRLIB.C|C:\PROJETOS\C++\VOICEGATEWAY\LUA4.0\LS_ODBC.C|C:\PROJETOS\C++\VOICEGATEWAY\LUA4.0\LTABLE.C|C:\PROJETOS\C++\VOICEGATEWAY\LUA4.0\LTESTS.C|C:\PROJETOS\C++\VOICEGATEWAY\LUA4.0\LTM.C|C:\PROJETOS\C++\VOICEGATEWAY\LUA4.0\LUASOCKET.C|C:\PROJETOS\C++\VOICEGATEWAY\LUA4.0\LUASQL.C|C:\PROJETOS\C++\VOICEGATEWAY\LUA4.0\LUNDUMP.C|C:\PROJETOS\C++\VOICEGATEWAY\LUA4.0\LVM.C|C:\PROJETOS\C++\VOICEGATEWAY\LUA4.0\LZIO.C
C:\PROJETOS\C++\VOICEGATEWAY\LUA4.0\WIN32\DEBUG\LZIO.SBR
C:\PROJETOS\C++\VOICEGATEWAY\LUA4.0\WIN32\DEBUG\LVM.SBR
C:\PROJETOS\C++\VOICEGATEWAY\LUA4.0\WIN32\DEBUG\LUNDUMP.SBR
C:\PROJETOS\C++\VOICEGATEWAY\LUA4.0\WIN32\DEBUG\LUASQL.SBR
C:\PROJETOS\C++\VOICEGATEWAY\LUA4.0\WIN32\DEBUG\LUASOCKET.SBR
C:\PROJETOS\C++\VOICEGATEWAY\LUA4.0\WIN32\DEBUG\LTM.SBR
C:\PROJETOS\C++\VOICEGATEWAY\LUA4.0\WIN32\DEBUG\LTESTS.SBR
C:\PROJETOS\C++\VOICEGATEWAY\LUA4.0\WIN32\DEBUG\LTABLE.SBR
C:\PROJETOS\C++\VOICEGATEWAY\LUA4.0\WIN32\DEBUG\LS_ODBC.SBR
C:\PROJETOS\C++\VOICEGATEWAY\LUA4.0\WIN32\DEBUG\LSTRLIB.SBR
C:\PROJETOS\C++\VOICEGATEWAY\LUA4.0\WIN32\DEBUG\LSTRING.SBR
C:\PROJETOS\C++\VOICEGATEWAY\LUA4.0\WIN32\DEBUG\LSTATE.SBR
C:\PROJETOS\C++\VOICEGATEWAY\LUA4.0\WIN32\DEBUG\LPARSER.SBR
C:\PROJETOS\C++\VOICEGATEWAY\LUA4.0\WIN32\DEBUG\LOBJECT.SBR
C:\PROJETOS\C++\VOICEGATEWAY\LUA4.0\WIN32\DEBUG\LMEM.SBR
C:\PROJETOS\C++\VOICEGATEWAY\LUA4.0\WIN32\DEBUG\LMATHLIB.SBR
C:\PROJETOS\C++\VOICEGATEWAY\LUA4.0\WIN32\DEBUG\LLEX.SBR
C:\PROJETOS\C++\VOICEGATEWAY\LUA4.0\WIN32\DEBUG\LIOLIB.SBR
C:\PROJETOS\C++\VOICEGATEWAY\LUA4.0\WIN32\DEBUG\LGC.SBR
C:\PROJETOS\C++\VOICEGATEWAY\LUA4.0\WIN32\DEBUG\LFUNC.SBR
C:\PROJETOS\C++\VOICEGATEWAY\LUA4.0\WIN32\DEBUG\LFUNC.OBJ
C:\PROJETOS\C++\VOICEGATEWAY\LUA4.0\WIN32\DEBUG\LGC.OBJ
C:\PROJETOS\C++\VOICEGATEWAY\LUA4.0\WIN32\DEBUG\LIOLIB.OBJ
C:\PROJETOS\C++\VOICEGATEWAY\LUA4.0\WIN32\DEBUG\LLEX.OBJ
C:\PROJETOS\C++\VOICEGATEWAY\LUA4.0\WIN32\DEBUG\LMATHLIB.OBJ
C:\PROJETOS\C++\VOICEGATEWAY\LUA4.0\WIN32\DEBUG\LMEM.OBJ
C:\PROJETOS\C++\VOICEGATEWAY\LUA4.0\WIN32\DEBUG\LOBJECT.OBJ
C:\PROJETOS\C++\VOICEGATEWAY\LUA4.0\WIN32\DEBUG\LPARSER.OBJ
C:\PROJETOS\C++\VOICEGATEWAY\LUA4.0\WIN32\DEBUG\LSTATE.OBJ
C:\PROJETOS\C++\VOICEGATEWAY\LUA4.0\WIN32\DEBUG\LSTRING.OBJ
C:\PROJETOS\C++\VOICEGATEWAY\LUA4.0\WIN32\DEBUG\LSTRLIB.OBJ
C:\PROJETOS\C++\VOICEGATEWAY\LUA4.0\WIN32\DEBUG\LS_ODBC.OBJ
C:\PROJETOS\C++\VOICEGATEWAY\LUA4.0\WIN32\DEBUG\LTABLE.OBJ
C:\PROJETOS\C++\VOICEGATEWAY\LUA4.0\WIN32\DEBUG\LTESTS.OBJ
C:\PROJETOS\C++\VOICEGATEWAY\LUA4.0\WIN32\DEBUG\LTM.OBJ
C:\PROJETOS\C++\VOICEGATEWAY\LUA4.0\WIN32\DEBUG\LUASOCKET.OBJ
C:\PROJETOS\C++\VOICEGATEWAY\LUA4.0\WIN32\DEBUG\LUASQL.OBJ
C:\PROJETOS\C++\VOICEGATEWAY\LUA4.0\WIN32\DEBUG\LUNDUMP.OBJ
C:\PROJETOS\C++\VOICEGATEWAY\LUA4.0\WIN32\DEBUG\LVM.OBJ
C:\PROJETOS\C++\VOICEGATEWAY\LUA4.0\WIN32\DEBUG\LZIO.OBJ
C:\PROJETOS\C++\VOICEGATEWAY\LUA4.0\WIN32\DEBUG\LDO.SBR
C:\PROJETOS\C++\VOICEGATEWAY\LUA4.0\WIN32\DEBUG\LDEBUG.SBR
C:\PROJETOS\C++\VOICEGATEWAY\LUA4.0\WIN32\DEBUG\LDBLIB.SBR
C:\PROJETOS\C++\VOICEGATEWAY\LUA4.0\WIN32\DEBUG\LCODE.SBR
C:\PROJETOS\C++\VOICEGATEWAY\LUA4.0\WIN32\DEBUG\LBASELIB.SBR
C:\PROJETOS\C++\VOICEGATEWAY\LUA4.0\WIN32\DEBUG\LAUXLIB.SBR
C:\PROJETOS\C++\VOICEGATEWAY\LUA4.0\WIN32\DEBUG\LAPI.SBR
C:\PROJETOS\C++\VOICEGATEWAY\LUA4.0\WIN32\DEBUG\LAPI.OBJ
C:\PROJETOS\C++\VOICEGATEWAY\LUA4.0\WIN32\DEBUG\LAUXLIB.OBJ
C:\PROJETOS\C++\VOICEGATEWAY\LUA4.0\WIN32\DEBUG\LBASELIB.OBJ
C:\PROJETOS\C++\VOICEGATEWAY\LUA4.0\WIN32\DEBUG\LCODE.OBJ
C:\PROJETOS\C++\VOICEGATEWAY\LUA4.0\WIN32\DEBUG\LDBLIB.OBJ
C:\PROJETOS\C++\VOICEGATEWAY\LUA4.0\WIN32\DEBUG\LDEBUG.OBJ
C:\PROJETOS\C++\VOICEGATEWAY\LUA4.0\WIN32\DEBUG\LDO.OBJ
^C:\PROJETOS\C++\VOICEGATEWAY\LUA4.0\LAPI.C
C:\PROJETOS\C++\VOICEGATEWAY\LUA4.0\WIN32\DEBUG\VC110.PDB
^C:\PROJETOS\C++\VOICEGATEWAY\LUA4.0\LAUXLIB.C
C:\PROJETOS\C++\VOICEGATEWAY\LUA4.0\WIN32\DEBUG\VC110.PDB
^C:\PROJETOS\C++\VOICEGATEWAY\LUA4.0\LBASELIB.C
C:\PROJETOS\C++\VOICEGATEWAY\LUA4.0\WIN32\DEBUG\VC110.PDB
^C:\PROJETOS\C++\VOICEGATEWAY\LUA4.0\LCODE.C
C:\PROJETOS\C++\VOICEGATEWAY\LUA4.0\WIN32\DEBUG\VC110.PDB
^C:\PROJETOS\C++\VOICEGATEWAY\LUA4.0\LDBLIB.C
C:\PROJETOS\C++\VOICEGATEWAY\LUA4.0\WIN32\DEBUG\VC110.PDB
^C:\PROJETOS\C++\VOICEGATEWAY\LUA4.0\LDEBUG.C
C:\PROJETOS\C++\VOICEGATEWAY\LUA4.0\WIN32\DEBUG\VC110.PDB
^C:\PROJETOS\C++\VOICEGATEWAY\LUA4.0\LDO.C
C:\PROJETOS\C++\VOICEGATEWAY\LUA4.0\WIN32\DEBUG\VC110.PDB
^C:\PROJETOS\C++\VOICEGATEWAY\LUA4.0\LFUNC.C
C:\PROJETOS\C++\VOICEGATEWAY\LUA4.0\WIN32\DEBUG\VC110.PDB
^C:\PROJETOS\C++\VOICEGATEWAY\LUA4.0\LGC.C
C:\PROJETOS\C++\VOICEGATEWAY\LUA4.0\WIN32\DEBUG\VC110.PDB
^C:\PROJETOS\C++\VOICEGATEWAY\LUA4.0\LIOLIB.C
C:\PROJETOS\C++\VOICEGATEWAY\LUA4.0\WIN32\DEBUG\VC110.PDB
^C:\PROJETOS\C++\VOICEGATEWAY\LUA4.0\LLEX.C
C:\PROJETOS\C++\VOICEGATEWAY\LUA4.0\WIN32\DEBUG\VC110.PDB
^C:\PROJETOS\C++\VOICEGATEWAY\LUA4.0\LMATHLIB.C
C:\PROJETOS\C++\VOICEGATEWAY\LUA4.0\WIN32\DEBUG\VC110.PDB
^C:\PROJETOS\C++\VOICEGATEWAY\LUA4.0\LMEM.C
C:\PROJETOS\C++\VOICEGATEWAY\LUA4.0\WIN32\DEBUG\VC110.PDB
^C:\PROJETOS\C++\VOICEGATEWAY\LUA4.0\LOBJECT.C
C:\PROJETOS\C++\VOICEGATEWAY\LUA4.0\WIN32\DEBUG\VC110.PDB
^C:\PROJETOS\C++\VOICEGATEWAY\LUA4.0\LPARSER.C
C:\PROJETOS\C++\VOICEGATEWAY\LUA4.0\WIN32\DEBUG\VC110.PDB
^C:\PROJETOS\C++\VOICEGATEWAY\LUA4.0\LSTATE.C
C:\PROJETOS\C++\VOICEGATEWAY\LUA4.0\WIN32\DEBUG\VC110.PDB
^C:\PROJETOS\C++\VOICEGATEWAY\LUA4.0\LSTRING.C
C:\PROJETOS\C++\VOICEGATEWAY\LUA4.0\WIN32\DEBUG\VC110.PDB
^C:\PROJETOS\C++\VOICEGATEWAY\LUA4.0\LSTRLIB.C
C:\PROJETOS\C++\VOICEGATEWAY\LUA4.0\WIN32\DEBUG\VC110.PDB
^C:\PROJETOS\C++\VOICEGATEWAY\LUA4.0\LS_ODBC.C
C:\PROJETOS\C++\VOICEGATEWAY\LUA4.0\WIN32\DEBUG\VC110.PDB
^C:\PROJETOS\C++\VOICEGATEWAY\LUA4.0\LTABLE.C
C:\PROJETOS\C++\VOICEGATEWAY\LUA4.0\WIN32\DEBUG\VC110.PDB
^C:\PROJETOS\C++\VOICEGATEWAY\LUA4.0\LTESTS.C
C:\PROJETOS\C++\VOICEGATEWAY\LUA4.0\WIN32\DEBUG\VC110.PDB
^C:\PROJETOS\C++\VOICEGATEWAY\LUA4.0\LTM.C
C:\PROJETOS\C++\VOICEGATEWAY\LUA4.0\WIN32\DEBUG\VC110.PDB
^C:\PROJETOS\C++\VOICEGATEWAY\LUA4.0\LUASOCKET.C
C:\PROJETOS\C++\VOICEGATEWAY\LUA4.0\WIN32\DEBUG\VC110.PDB
^C:\PROJETOS\C++\VOICEGATEWAY\LUA4.0\LUASQL.C
C:\PROJETOS\C++\VOICEGATEWAY\LUA4.0\WIN32\DEBUG\VC110.PDB
^C:\PROJETOS\C++\VOICEGATEWAY\LUA4.0\LUNDUMP.C
C:\PROJETOS\C++\VOICEGATEWAY\LUA4.0\WIN32\DEBUG\VC110.PDB
^C:\PROJETOS\C++\VOICEGATEWAY\LUA4.0\LVM.C
C:\PROJETOS\C++\VOICEGATEWAY\LUA4.0\WIN32\DEBUG\VC110.PDB
^C:\PROJETOS\C++\VOICEGATEWAY\LUA4.0\LZIO.C
C:\PROJETOS\C++\VOICEGATEWAY\LUA4.0\WIN32\DEBUG\VC110.PDB
